…
``` r
bmi_recipe <- 
  recipe(bmi_recode ~ ., data = train_data) %>% 
  update_role(ADM_STUDY_ID, new_role = "ID") %>% 
  step_normalize(all_numeric_predictors()) %>% ### Mean center and standardize (z-score) the numeric predictors
  step_dummy(all_nominal_predictors()) %>% ### One hot encoding. Dramatically improves model performance with many factors
  step_zv(all_predictors()) ### Remove columns from the data when the training set data have a single value. Zero variance predictor

summary(bmi_recipe)
```

```
## # A tibble: 92 × 4
##    variable                  type      role      source  
##    <chr>                     <list>    <chr>     <chr>   
##  1 ADM_STUDY_ID              <chr [2]> ID        original
##  2 SDC_GENDER                <chr [3]> predictor original
##  3 SDC_AGE_CALC              <chr [2]> predictor original
##  4 SDC_MARITAL_STATUS        <chr [3]> predictor original
##  5 SDC_EDU_LEVEL             <chr [3]> predictor original
##  6 SDC_EDU_LEVEL_AGE         <chr [2]> predictor original
##  7 SDC_INCOME_IND_NB         <chr [3]> predictor original
##  8 SDC_HOUSEHOLD_ADULTS_NB   <chr [3]> predictor original
##  9 SDC_HOUSEHOLD_CHILDREN_NB <chr [3]> predictor original
## 10 HS_GEN_HEALTH             <chr [3]> predictor original
## # ℹ 82 more rows
```
…
``` r
bmi_fit %>% 
  extract_fit_parsnip() %>% 
  tidy()
```

```
## # A tibble: 194 × 5
##    term                   estimate std.error statistic  p.value
##    <chr>                     <dbl>     <dbl>     <dbl>    <dbl>
##  1 (Intercept)            26.0        2.99      8.68   4.15e-18
##  2 SDC_AGE_CALC            0.0238     0.0720    0.331  7.41e- 1
##  3 SDC_EDU_LEVEL_AGE       0.0617     0.0408    1.51   1.31e- 1
##  4 PA_TOTAL_SHORT         -0.137      0.0362   -3.80   1.47e- 4
##  5 PSE_ADULT_WRK_DURATION  0.0723     0.0411    1.76   7.84e- 2
##  6 SDC_GENDER_X2           1.70       1.57      1.09   2.77e- 1
##  7 SDC_MARITAL_STATUS_X2   0.00531    0.157     0.0339 9.73e- 1
##  8 SDC_MARITAL_STATUS_X3   0.00251    0.238     0.0105 9.92e- 1
##  9 SDC_MARITAL_STATUS_X4  -0.347      0.204    -1.70   8.90e- 2
## 10 SDC_MARITAL_STATUS_X5   0.0292     0.161     0.182  8.56e- 1
## # ℹ 184 more rows
```
…
